When do we have children? Analysis of patterns in Danish child births
…
tmp2 <- na.omit(tmp1) %>% 
  filter(FDAG != "Total") %>%
  filter(FMAANED != "Total") %>%
  mutate(FMAANED   = replace(FMAANED, FMAANED == "february", "February")) %>%
  mutate(year.num  = format(as.Date(TID, format="%Y/%m/%d"),"%Y")) %>%
  mutate(month.num = match(FMAANED, month.name)) %>%    #change month name into numerical
  transmute(b.date = as.Date(paste(year.num, month.num, FDAG), "%Y %m %d"), 
            n = value) %>% 
  arrange(b.date) %>%
  {.}

tmp2

## # A tibble: 4,383 x 2
##    b.date         n
##    <date>     <int>
##  1 2007-01-01   130
##  2 2007-01-02   178
##  3 2007-01-03   189
##  4 2007-01-04   188
##  5 2007-01-05   171
##  6 2007-01-06   147
##  7 2007-01-07   125
##  8 2007-01-08   198
##  9 2007-01-09   174
## 10 2007-01-10   186
## # ... with 4,373 more rows
…
fod_hol <- fod_hol %>%
  mutate(c.date = b.date-267) %>%
  mutate(c.year  = format(as.Date(c.date, format="%d/%m/%Y"),"%Y"),
         c.month = format(as.Date(c.date, format="%d/%m/%Y"),"%m"),
         c.day   = format(as.Date(c.date, format="%d/%m/%Y"),"%d")) %>%
  mutate(c.dummy = as.Date(paste("2008", c.month, c.day), "%Y %m %d")) %>%
  {.}

rm(tmp1,tmp2,foddag_list, fit, year_range)

fod_hol

## # A tibble: 4,383 x 17
##    b.date         n b.weekno b.year b.month b.day b.weekday b.daytype
##    <date>     <int> <chr>    <chr>  <chr>   <chr> <chr>     <chr>    
##  1 2007-01-01   130 01       2007   01      01    Mon       Nytrsdag
##  2 2007-01-02   178 01       2007   01      02    Tue       No       
##  3 2007-01-03   189 01       2007   01      03    Wed       No       
##  4 2007-01-04   188 01       2007   01      04    Thu       No       
##  5 2007-01-05   171 01       2007   01      05    Fri       No       
##  6 2007-01-06   147 01       2007   01      06    Sat       Saturday 
##  7 2007-01-07   125 01       2007   01      07    Sun       Sunday   
##  8 2007-01-08   198 02       2007   01      08    Mon       No       
##  9 2007-01-09   174 02       2007   01      09    Tue       No       
## 10 2007-01-10   186 02       2007   01      10    Wed       No       
## # ... with 4,373 more rows, and 9 more variables: b.dummy <date>,
## #   b.daystatus <chr>, n.corrected2 <dbl>, n.corrected <dbl>,
## #   c.date <date>, c.year <chr>, c.month <chr>, c.day <chr>,
## #   c.dummy <date>
…
#ggsave(plot = final, filename = "boxplot.weekdays.effect.pdf", width = 180, height=80, units = "mm")

Seasonal variation (average over years)

We use data that are corrected for year and weekday

fod_hol %>% 
  group_by(b.dummy, b.month, b.day) %>% 
  summarise(y = mean(n.corrected)) %>%
  arrange(y)

## # A tibble: 366 x 4
## # Groups:   b.dummy, b.month [366]
##    b.dummy    b.month b.day     y
##    <date>     <chr>   <chr> <dbl>
##  1 2008-12-24 12      24     112.
##  2 2008-12-25 12      25     115.
##  3 2008-01-01 01      01     120.
##  4 2008-12-26 12      26     123.
##  5 2008-12-31 12      31     135.
##  6 2008-02-29 02      29     136.
##  7 2008-05-01 05      01     145.
##  8 2008-01-02 01      02     148.
##  9 2008-12-05 12      05     148.
## 10 2008-11-30 11      30     150.
## # ... with 356 more rows
…
pd

## Source: local data frame [4,383 x 24]
## Groups: <by row>
## 
## # A tibble: 4,383 x 24
##    b.date         n b.weekno b.year b.month b.day b.weekday b.daytype
##    <date>     <int> <chr>    <chr>  <chr>   <chr> <chr>     <chr>    
##  1 2007-01-01   130 01       2007   01      01    Mon       Nytrsdag
##  2 2007-01-02   178 01       2007   01      02    Tue       No       
##  3 2007-01-03   189 01       2007   01      03    Wed       No       
##  4 2007-01-04   188 01       2007   01      04    Thu       No       
##  5 2007-01-05   171 01       2007   01      05    Fri       No       
##  6 2007-01-06   147 01       2007   01      06    Sat       Saturday 
##  7 2007-01-07   125 01       2007   01      07    Sun       Sunday   
##  8 2007-01-08   198 02       2007   01      08    Mon       No       
##  9 2007-01-09   174 02       2007   01      09    Tue       No       
## 10 2007-01-10   186 02       2007   01      10    Wed       No       
## # ... with 4,373 more rows, and 16 more variables: b.dummy <date>,
## #   b.daystatus <chr>, n.corrected2 <dbl>, n.corrected <dbl>,
## #   c.date <date>, c.year <chr>, c.month <chr>, c.day <chr>,
## #   c.dummy <date>, d.w42 <int>, d.winter <int>, d.newyear <int>,
## #   d.easter <int>, d.krhimmel <int>, d.pinse <int>, d.xmas <int>
…
